Xmit/simulation/qsim/Xmit.msim.vcd
$comment
	File created using the following command:
		vcd file Xmit.msim.vcd -direction
$end
$date
	Tue Dec 06 01:26:58 2016
$end
$version
	ModelSim Version 10.1d
$end
$timescale
	1ps
$end
$scope module priority_FSM_vlg_vec_tst $end
$var reg 1 ! clk_phy $end
$var reg 24 " ctrl_block_hi_in [23:0] $end
$var reg 24 # ctrl_block_lo_in [23:0] $end
$var reg 8 $ data_hi_in [7:0] $end
$var reg 8 % data_lo_in [7:0] $end
$var reg 10 & hi_fifo_used_in [9:0] $end
$var reg 1 ' lo_empty_in $end
$var reg 1 ( reset $end
$var reg 1 ) stop_in $end
$var wire 1 * ctrl_block_out [23] $end
$var wire 1 + ctrl_block_out [22] $end
$var wire 1 , ctrl_block_out [21] $end
$var wire 1 - ctrl_block_out [20] $end
$var wire 1 . ctrl_block_out [19] $end
$var wire 1 / ctrl_block_out [18] $end
$var wire 1 0 ctrl_block_out [17] $end
$var wire 1 1 ctrl_block_out [16] $end
$var wire 1 2 ctrl_block_out [15] $end
$var wire 1 3 ctrl_block_out [14] $end
$var wire 1 4 ctrl_block_out [13] $end
$var wire 1 5 ctrl_block_out [12] $end
$var wire 1 6 ctrl_block_out [11] $end
$var wire 1 7 ctrl_block_out [10] $end
$var wire 1 8 ctrl_block_out [9] $end
$var wire 1 9 ctrl_block_out [8] $end
$var wire 1 : ctrl_block_out [7] $end
$var wire 1 ; ctrl_block_out [6] $end
$var wire 1 < ctrl_block_out [5] $end
$var wire 1 = ctrl_block_out [4] $end
$var wire 1 > ctrl_block_out [3] $end
$var wire 1 ? ctrl_block_out [2] $end
$var wire 1 @ ctrl_block_out [1] $end
$var wire 1 A ctrl_block_out [0] $end
$var wire 1 B data_out [7] $end
$var wire 1 C data_out [6] $end
$var wire 1 D data_out [5] $end
$var wire 1 E data_out [4] $end
$var wire 1 F data_out [3] $end
$var wire 1 G data_out [2] $end
$var wire 1 H data_out [1] $end
$var wire 1 I data_out [0] $end
$var wire 1 J pop_hi $end
$var wire 1 K pop_lo $end
$scope module i1 $end
$var wire 1 L gnd $end
$var wire 1 M vcc $end
$var wire 1 N unknown $end
$var tri1 1 O devclrn $end
$var tri1 1 P devpor $end
$var tri1 1 Q devoe $end
$var wire 1 R pop_lo~output_o $end
$var wire 1 S pop_hi~output_o $end
$var wire 1 T data_out[0]~output_o $end
$var wire 1 U data_out[1]~output_o $end
$var wire 1 V data_out[2]~output_o $end
$var wire 1 W data_out[3]~output_o $end
$var wire 1 X data_out[4]~output_o $end
$var wire 1 Y data_out[5]~output_o $end
$var wire 1 Z data_out[6]~output_o $end
$var wire 1 [ data_out[7]~output_o $end
$var wire 1 \ ctrl_block_out[0]~output_o $end
$var wire 1 ] ctrl_block_out[1]~output_o $end
$var wire 1 ^ ctrl_block_out[2]~output_o $end
$var wire 1 _ ctrl_block_out[3]~output_o $end
$var wire 1 ` ctrl_block_out[4]~output_o $end
$var wire 1 a ctrl_block_out[5]~output_o $end
$var wire 1 b ctrl_block_out[6]~output_o $end
$var wire 1 c ctrl_block_out[7]~output_o $end
$var wire 1 d ctrl_block_out[8]~output_o $end
$var wire 1 e ctrl_block_out[9]~output_o $end
$var wire 1 f ctrl_block_out[10]~output_o $end
$var wire 1 g ctrl_block_out[11]~output_o $end
$var wire 1 h ctrl_block_out[12]~output_o $end
$var wire 1 i ctrl_block_out[13]~output_o $end
$var wire 1 j ctrl_block_out[14]~output_o $end
$var wire 1 k ctrl_block_out[15]~output_o $end
$var wire 1 l ctrl_block_out[16]~output_o $end
$var wire 1 m ctrl_block_out[17]~output_o $end
$var wire 1 n ctrl_block_out[18]~output_o $end
$var wire 1 o ctrl_block_out[19]~output_o $end
$var wire 1 p ctrl_block_out[20]~output_o $end
$var wire 1 q ctrl_block_out[21]~output_o $end
$var wire 1 r ctrl_block_out[22]~output_o $end
$var wire 1 s ctrl_block_out[23]~output_o $end
$var wire 1 t clk_phy~input_o $end
$var wire 1 u lo_empty_in~input_o $end
$var wire 1 v hi_fifo_used_in[8]~input_o $end
$var wire 1 w hi_fifo_used_in[9]~input_o $end
$var wire 1 x process_2~0_combout $end
$var wire 1 y hi_fifo_used_in[4]~input_o $end
$var wire 1 z stop_in~input_o $end
$var wire 1 { hi_fifo_used_in[0]~input_o $end
$var wire 1 | hi_fifo_used_in[1]~input_o $end
$var wire 1 } hi_fifo_used_in[2]~input_o $end
$var wire 1 ~ hi_fifo_used_in[3]~input_o $end
$var wire 1 !! process_2~1_combout $end
$var wire 1 "! hi_fifo_used_in[5]~input_o $end
$var wire 1 #! hi_fifo_used_in[6]~input_o $end
$var wire 1 $! hi_fifo_used_in[7]~input_o $end
$var wire 1 %! process_2~2_combout $end
$var wire 1 &! reset~input_o $end
$var wire 1 '! my_state.s_off~0_combout $end
$var wire 1 (! my_state.s_off~1_combout $end
$var wire 1 )! my_state.s_lo~q $end
$var wire 1 *! my_state.s_hi~0_combout $end
$var wire 1 +! my_state.s_hi~q $end
$var wire 1 ,! data_hi_in[0]~input_o $end
$var wire 1 -! data_lo_in[0]~input_o $end
$var wire 1 .! data_out~0_combout $end
$var wire 1 /! data_hi_in[1]~input_o $end
$var wire 1 0! data_lo_in[1]~input_o $end
$var wire 1 1! data_out~1_combout $end
$var wire 1 2! data_hi_in[2]~input_o $end
$var wire 1 3! data_lo_in[2]~input_o $end
$var wire 1 4! data_out~2_combout $end
$var wire 1 5! data_hi_in[3]~input_o $end
$var wire 1 6! data_lo_in[3]~input_o $end
$var wire 1 7! data_out~3_combout $end
$var wire 1 8! data_hi_in[4]~input_o $end
$var wire 1 9! data_lo_in[4]~input_o $end
$var wire 1 :! data_out~4_combout $end
$var wire 1 ;! data_hi_in[5]~input_o $end
$var wire 1 <! data_lo_in[5]~input_o $end
$var wire 1 =! data_out~5_combout $end
$var wire 1 >! data_hi_in[6]~input_o $end
$var wire 1 ?! data_lo_in[6]~input_o $end
$var wire 1 @! data_out~6_combout $end
$var wire 1 A! data_hi_in[7]~input_o $end
$var wire 1 B! data_lo_in[7]~input_o $end
$var wire 1 C! data_out~7_combout $end
$var wire 1 D! ctrl_block_hi_in[0]~input_o $end
$var wire 1 E! ctrl_block_lo_in[0]~input_o $end
$var wire 1 F! ctrl_block_out~0_combout $end
$var wire 1 G! ctrl_block_hi_in[1]~input_o $end
$var wire 1 H! ctrl_block_lo_in[1]~input_o $end
$var wire 1 I! ctrl_block_out~1_combout $end
$var wire 1 J! ctrl_block_hi_in[2]~input_o $end
$var wire 1 K! ctrl_block_lo_in[2]~input_o $end
$var wire 1 L! ctrl_block_out~2_combout $end
$var wire 1 M! ctrl_block_hi_in[3]~input_o $end
$var wire 1 N! ctrl_block_lo_in[3]~input_o $end
$var wire 1 O! ctrl_block_out~3_combout $end
$var wire 1 P! ctrl_block_hi_in[4]~input_o $end
$var wire 1 Q! ctrl_block_lo_in[4]~input_o $end
$var wire 1 R! ctrl_block_out~4_combout $end
$var wire 1 S! ctrl_block_hi_in[5]~input_o $end
$var wire 1 T! ctrl_block_lo_in[5]~input_o $end
$var wire 1 U! ctrl_block_out~5_combout $end
$var wire 1 V! ctrl_block_hi_in[6]~input_o $end
$var wire 1 W! ctrl_block_lo_in[6]~input_o $end
$var wire 1 X! ctrl_block_out~6_combout $end
$var wire 1 Y! ctrl_block_hi_in[7]~input_o $end
$var wire 1 Z! ctrl_block_lo_in[7]~input_o $end
$var wire 1 [! ctrl_block_out~7_combout $end
$var wire 1 \! ctrl_block_hi_in[8]~input_o $end
$var wire 1 ]! ctrl_block_lo_in[8]~input_o $end
$var wire 1 ^! ctrl_block_out~8_combout $end
$var wire 1 _! ctrl_block_hi_in[9]~input_o $end
$var wire 1 `! ctrl_block_lo_in[9]~input_o $end
$var wire 1 a! ctrl_block_out~9_combout $end
$var wire 1 b! ctrl_block_hi_in[10]~input_o $end
$var wire 1 c! ctrl_block_lo_in[10]~input_o $end
$var wire 1 d! ctrl_block_out~10_combout $end
$var wire 1 e! ctrl_block_hi_in[11]~input_o $end
$var wire 1 f! ctrl_block_lo_in[11]~input_o $end
$var wire 1 g! ctrl_block_out~11_combout $end
$var wire 1 h! ctrl_block_hi_in[12]~input_o $end
$var wire 1 i! ctrl_block_lo_in[12]~input_o $end
$var wire 1 j! ctrl_block_out~12_combout $end
$var wire 1 k! ctrl_block_hi_in[13]~input_o $end
$var wire 1 l! ctrl_block_lo_in[13]~input_o $end
$var wire 1 m! ctrl_block_out~13_combout $end
$var wire 1 n! ctrl_block_hi_in[14]~input_o $end
$var wire 1 o! ctrl_block_lo_in[14]~input_o $end
$var wire 1 p! ctrl_block_out~14_combout $end
$var wire 1 q! ctrl_block_hi_in[15]~input_o $end
$var wire 1 r! ctrl_block_lo_in[15]~input_o $end
$var wire 1 s! ctrl_block_out~15_combout $end
$var wire 1 t! ctrl_block_hi_in[16]~input_o $end
$var wire 1 u! ctrl_block_lo_in[16]~input_o $end
$var wire 1 v! ctrl_block_out~16_combout $end
$var wire 1 w! ctrl_block_hi_in[17]~input_o $end
$var wire 1 x! ctrl_block_lo_in[17]~input_o $end
$var wire 1 y! ctrl_block_out~17_combout $end
$var wire 1 z! ctrl_block_hi_in[18]~input_o $end
$var wire 1 {! ctrl_block_lo_in[18]~input_o $end
$var wire 1 |! ctrl_block_out~18_combout $end
$var wire 1 }! ctrl_block_hi_in[19]~input_o $end
$var wire 1 ~! ctrl_block_lo_in[19]~input_o $end
$var wire 1 !" ctrl_block_out~19_combout $end
$var wire 1 "" ctrl_block_hi_in[20]~input_o $end
$var wire 1 #" ctrl_block_lo_in[20]~input_o $end
$var wire 1 $" ctrl_block_out~20_combout $end
$var wire 1 %" ctrl_block_hi_in[21]~input_o $end
$var wire 1 &" ctrl_block_lo_in[21]~input_o $end
$var wire 1 '" ctrl_block_out~21_combout $end
$var wire 1 (" ctrl_block_hi_in[22]~input_o $end
$var wire 1 )" ctrl_block_lo_in[22]~input_o $end
$var wire 1 *" ctrl_block_out~22_combout $end
$var wire 1 +" ctrl_block_hi_in[23]~input_o $end
$var wire 1 ," ctrl_block_lo_in[23]~input_o $end
$var wire 1 -" ctrl_block_out~23_combout $end
$upscope $end
$upscope $end
$enddefinitions $end
#0
$dumpvars
0!
b111001000111011110110 "
b11001000010000111111101 #
b10100 $
b1000010 %
b1001011000 &
0'
1(
0)
1A
0@
1?
1>
1=
1<
1;
1:
19
08
07
06
05
14
03
02
01
00
1/
0.
0-
1,
1+
0*
0I
1H
0G
0F
0E
0D
1C
0B
0J
0K
0L
1M
xN
1O
1P
1Q
0R
0S
0T
1U
0V
0W
0X
0Y
1Z
0[
1\
0]
1^
1_
1`
1a
1b
1c
1d
0e
0f
0g
0h
1i
0j
0k
0l
0m
1n
0o
0p
1q
1r
0s
0t
0u
0v
1w
0x
1y
0z
0{
0|
0}
1~
0!!
0"!
1#!
0$!
0%!
1&!
0'!
0(!
0)!
1*!
0+!
0,!
0-!
0.!
0/!
10!
11!
12!
03!
04!
05!
06!
07!
18!
09!
0:!
0;!
0<!
0=!
0>!
1?!
1@!
0A!
0B!
0C!
0D!
1E!
1F!
1G!
0H!
0I!
1J!
1K!
1L!
0M!
1N!
1O!
1P!
1Q!
1R!
1S!
1T!
1U!
1V!
1W!
1X!
1Y!
1Z!
1[!
0\!
1]!
1^!
1_!
0`!
0a!
1b!
0c!
0d!
1e!
0f!
0g!
0h!
0i!
0j!
0k!
1l!
1m!
0n!
0o!
0p!
1q!
0r!
0s!
0t!
0u!
0v!
0w!
0x!
0y!
1z!
1{!
1|!
1}!
0~!
0!"
1""
0#"
0$"
0%"
1&"
1'"
0("
1)"
1*"
0+"
0,"
0-"
$end
#5000
1!
1t
#10000
b1011000 &
b101011000 &
b111011000 &
b111010000 &
b111010100 &
b111010110 &
b1111001000111011110110 "
b1110001000111011110110 "
b1110101000111011110110 "
b1110111000111011110110 "
b1110110000111011110110 "
b1110110100111011110110 "
b1110110110111011110110 "
b1110110110011011110110 "
b1110110110001011110110 "
b1110110110001111110110 "
b1110110110001101110110 "
b1110110110001101100110 "
b111001000010000111111101 #
b110001000010000111111101 #
b110101000010000111111101 #
b110101100010000111111101 #
b110101101010000111111101 #
b110101101011000111111101 #
b110101101011010111111101 #
b110101101011010011111101 #
b110101101011010010111101 #
b110101101011010010011101 #
b110101101011010010011001 #
b110101101011010010011000 #
b1010100 $
b1110100 $
b1100100 $
b1100000 $
b1100010 $
b1100011 $
b1100010 %
b1110010 %
b1111010 %
0!
16!
19!
1<!
1,!
1/!
02!
08!
1;!
1>!
0E!
0K!
0T!
0W!
0]!
1c!
1i!
1r!
1x!
1#"
0&"
1,"
0P!
0Y!
1\!
0b!
0e!
1k!
1n!
0q!
1t!
1w!
0z!
1%"
1|
1}
0~
1$!
1v
0w
0t
17!
1:!
1=!
0F!
0L!
0U!
0X!
0^!
1d!
1j!
1s!
1y!
1$"
0'"
1-"
1W
1X
1Y
0\
0^
0a
0b
0d
1f
1h
1k
1m
1p
0q
1s
1F
1E
1D
0A
0?
0<
0;
09
17
15
12
10
1-
0,
1*
#15000
1!
1t
#20000
b11110110110001101100110 "
b11100110110001101100110 "
b11100110111001101100110 "
b11100110111000101100110 "
b11100110111000100100110 "
b11100110111000100101110 "
b11100110111000100101010 "
b110111101011010010011000 #
b110110101011010010011000 #
b110110101111010010011000 #
b110110101101010010011000 #
b110110101101011010011000 #
b110110101101011010001000 #
b110110101101011010001010 #
b1101011 $
b11111010 %
b11111110 %
b11111100 %
b101010110 &
b101010100 &
b10100110111000100101010 "
b10101110111000100101010 "
b10101010111000100101010 "
b10101000111000100101010 "
b10101001111000100101010 "
b10101001101000100101010 "
b10101001101010100101010 "
b10101001101010110101010 "
b10101001101010110111010 "
b10110101101011010001010 #
b11110101101011010001010 #
b11010101101011010001010 #
b11010101100011010001010 #
b11010101100011010101010 #
b11010101100011010101011 #
b101011 $
b1011 $
b11011 $
b11111 $
0!
0|
0$!
00!
13!
1B!
12!
15!
18!
0;!
0>!
1E!
1H!
0Q!
1T!
1`!
0i!
0l!
1o!
0{!
1~!
0#"
1&"
0,"
0J!
1M!
1P!
0V!
1Y!
0_!
1b!
1h!
0k!
1q!
0t!
0w!
1z!
0}!
0%"
1("
0t
01!
14!
1C!
1F!
1I!
0R!
1U!
1a!
0j!
0m!
1p!
0|!
1!"
0$"
1'"
0-"
0U
1V
1[
1\
1]
0`
1a
1e
0h
0i
1j
0n
1o
0p
1q
0s
0H
1G
1B
1A
1@
0=
1<
18
05
04
13
0/
1.
0-
1,
0*
#25000
1!
1t
#30000
0(
b101110100 &
b101100100 &
b10001001101010110111010 "
b10001001101010110111011 "
b10011111 $
b10111100 %
b10111101 %
b101101100 &
b101101000 &
b10001001001010110111011 "
b10001001001110110111011 "
b11010100100011010101011 #
b11010100100011011101011 #
b10011101 $
b10011100 $
b10110101 %
b10011001001110110111011 "
b11011100100011011101011 #
b11011100000011011101011 #
b11011100010011011101011 #
b11011100010010011101011 #
b11011100010010011111011 #
b11011100010010011111001 #
b10110001 %
b10110011 %
b10011001011110110111011 "
b10011001011110100111011 "
b10011001011110100101011 "
b111011100010010011111001 #
b110011100010010011111001 #
b10111100 $
b10101100 $
b10101000 $
0!
0&!
0H!
1Q!
1W!
0`!
1l!
0o!
0r!
1{!
0&"
1,"
1-!
10!
03!
06!
0?!
0,!
0/!
02!
08!
1;!
1A!
1D!
0P!
0Y!
1e!
1k!
0n!
1}!
0""
0}
1~
0y
1"!
0t
0I!
1R!
1X!
0a!
1m!
0p!
0s!
1|!
0'"
1-"
1.!
11!
04!
07!
0@!
0]
1`
1b
0e
1i
0j
0k
1n
0q
1s
1T
1U
0V
0W
0Z
0@
1=
1;
08
14
03
02
1/
0,
1*
1I
1H
0G
0F
0C
#35000
1!
1t
#40000
b101101001 &
b110011001011110100101011 "
b110011110010010011111001 #
b110011110010010001111001 #
b110011110010010001110001 #
b110011001011110000101011 "
b110011010010010001110001 #
b10010011 %
b10000011 %
b100011001011110000101011 "
b100011001011110000100011 "
b100011001011110000100111 "
b10100000 $
b11 %
b100010001011110000100111 "
b100010101011110000100111 "
b100010100011110000100111 "
b100010100011110000100110 "
b100000 $
b1000011 %
b101100001 &
b101100101 &
b100010100111110000100110 "
b100010100111010000100110 "
b110011011010010001110001 #
b100010 $
b100000100111010000100110 "
b110010011010010001110001 #
b110010011110010001110001 #
b110010011110010001110011 #
b1000001 %
b100000100101010000100110 "
b10010011110010001110011 #
b100110 $
0!
1/!
12!
05!
0A!
00!
09!
0<!
1?!
0B!
1H!
0N!
0Z!
1o!
1r!
1u!
0x!
0{!
0,"
0D!
1J!
0M!
0\!
0e!
0k!
1n!
0q!
1w!
0z!
0}!
0("
1+"
1{
1}
0~
0t
01!
0C!
0:!
0=!
1@!
1I!
0O!
0[!
1p!
1s!
1v!
0y!
0|!
0-"
0U
0[
0X
0Y
1Z
1]
0_
0c
1j
1k
1l
0m
0n
0s
0H
0B
0E
0D
1C
1@
0>
0:
13
12
11
00
0/
0*
#45000
1!
1t
#50000
b100100101 &
b10011110010001110011 #
b1100100101 &
b10011110000001110011 #
b100000100100010000100110 "
b11110000001110011 #
b1110100101 &
b100000110100010000100110 "
b1110000101 &
b1001001 %
b11100000001110011 #
b11100001001110011 #
b11100001001100011 #
b1001101 %
b100000110100010000110110 "
b110 $
b1110000100 &
b11100001011100011 #
b11100001011101011 #
b111100001011101011 #
b1011101 %
b100000110100010000111110 "
b100000110100010000111010 "
b11011101 %
b100000010100010000111010 "
b100000010100010000111011 "
b10000110 $
b10011101 %
b1110001100 &
b110100001011101011 #
b10000100 $
b100010010100010000111011 "
b110000001011101011 #
b100010010110010000111011 "
b10000000 $
0!
0/!
02!
0;!
1A!
13!
16!
19!
0?!
1B!
1D!
0J!
1M!
1P!
0h!
1k!
1t!
0w!
1}!
1N!
0Q!
1Z!
1`!
0c!
0l!
0o!
0r!
1x!
0~!
0)"
0{
1~
0"!
0#!
1$!
1w
0t
14!
1C!
17!
1:!
0@!
1O!
0R!
0m!
1y!
0!"
1[!
1a!
0d!
0p!
0s!
0*"
1V
1[
1W
1X
0Z
1_
0`
0i
1m
0o
1c
1e
0f
0j
0k
0r
1G
1B
1F
1E
0C
1>
0=
04
10
0.
1:
18
07
03
02
0+
#55000
1!
1t
#60000
b100010010110010000111001 "
b1010001100 &
b110000001111101011 #
b100010010110011000111001 "
b100010010110011001111001 "
b1010001110 &
b101010010110011001111001 "
b100110000001111101011 #
b100110000001111001011 #
b11000000 $
b1010011110 &
b101110010110011001111001 "
b10011100 %
b100110000001110001011 #
b11000001 $
b101110010110011011111001 "
b1100110000001110001011 #
b1110010110011011111001 "
b1100100000001110001011 #
b1111010110011011111001 "
b1101100000001110001011 #
b10011110 %
b101101100000001110001011 #
b1011011110 &
b11011110 &
b101101100000011110001011 #
b101111100000011110001011 #
b1011110 &
b101111100010011110001011 #
b101111100010010110001011 #
b1111010110011011101001 "
b1011111 &
b101111100010010100001011 #
b101111000010010100001011 #
b1111010110011011101101 "
b1111010110011011101100 "
b11011110 %
b101111000110010100001011 #
0!
0-!
10!
1?!
1,!
1>!
0T!
0W!
0Z!
1]!
0`!
1c!
1l!
1o!
0u!
0x!
1{!
1~!
1#"
1&"
1,"
1{
1|
1y
1#!
0$!
0v
0w
0D!
0G!
1J!
0P!
1V!
1Y!
1_!
1z!
1""
1%"
0+"
0t
1x
1'!
0.!
11!
1@!
0U!
0X!
0[!
1^!
0a!
1d!
1m!
1p!
0v!
0y!
1|!
1!"
1$"
1'"
1-"
0*!
0T
1U
1Z
0a
0b
0c
1d
0e
1f
1i
1j
0l
0m
1n
1o
1p
1q
1s
0I
1H
1C
0<
0;
0:
19
08
17
14
13
01
00
1/
1.
1-
1,
1*
#65000
1!
1t
#70000
b1111010110011011001100 "
b101111000110010100001111 #
b101111000111010100001111 #
b1111010110011111001100 "
b11111010110011111001100 "
b11001001 $
b11111011110011111001100 "
b1011011 &
b11111011110111111001100 "
b101111000111010100001101 #
b101111000111010100011101 #
b11101001 $
b11001110 %
b1001110 %
b11111111110111111001100 "
b1101001 $
b1010011 &
b11111111110111111001110 "
b101111000111010000011101 #
b11111111110110111001110 "
b11111111110110110001110 "
b1010001 &
b101111000111010000111101 #
b1000001 &
b11011111110110110001110 "
b101111000111010001111101 #
b11011111110110100001110 "
b100111000111010001111101 #
b111011111110110100001110 "
b100110000111010001111101 #
b110000111010001111101 #
b1 &
b1000000001 &
b110000111000001111101 #
b110000101000001111101 #
b110000101001001111101 #
b111011111110110100011110 "
b110100101001001111101 #
b111011111110110100011010 "
b111011111110110100011011 "
b1110 %
0!
09!
0?!
0B!
0|
0}
0~
0y
0#!
1w
15!
1;!
0A!
0H!
1K!
1Q!
1T!
1W!
0]!
1`!
0c!
1i!
0l!
1x!
0{!
0&"
0,"
1D!
1G!
0J!
1P!
0S!
0V!
0Y!
1\!
0_!
1e!
1q!
1w!
0""
1("
1+"
0t
0x
0'!
0:!
0@!
0C!
0I!
1L!
1R!
1U!
1X!
0^!
1a!
0d!
1j!
0m!
1y!
0|!
0'"
0-"
1*!
0X
0Z
0[
0]
1^
1`
1a
1b
0d
1e
0f
1h
0i
1m
0n
0q
0s
0E
0C
0B
0@
1?
1=
1<
1;
09
18
07
15
04
10
0/
0,
0*
#75000
1!
1t
#80000
b110100101001001111100 #
b111011111111110100011011 "
b1000100001 &
b110 %
b110100101001001110100 #
b111001111111110100011011 "
b111001111101110100011011 "
b1101101 $
b101101 $
b111 %
b101100 $
b111000111101110100011011 "
b110100001001001110100 #
b111000111101110100111011 "
b111000111101110000111011 "
b101000111101110000111011 "
b100100 $
b1000100101 &
b101000111101010000111011 "
b110100001001001100100 #
b10111 %
b10010111 %
b101000011101010000111011 "
b1000101101 &
b101000011101010000111001 "
b101000011101010001111001 "
b1000111101 &
b101100011101010001111001 "
b110100001001000100100 #
b101100011101010011111001 "
b1110100001001000100100 #
b1100011101010011111001 "
b1001111101 &
b1111101 &
b1110100001011000100100 #
b1100011101010011101001 "
b1110000001011000100100 #
0!
0,!
12!
05!
0>!
1-!
06!
19!
1B!
1}
1~
1y
1"!
1#!
0w
0G!
0P!
1S!
1V!
1Y!
0\!
0e!
1h!
0k!
0w!
0z!
0}!
1""
0("
0+"
0E!
0N!
0Q!
0W!
1c!
0o!
0x!
1&"
0t
1x
1'!
1.!
07!
1:!
1C!
0R!
0X!
0y!
0F!
0O!
1d!
0p!
1'"
0*!
1T
0W
1X
1[
0`
0b
0m
0\
0_
1f
0j
1q
1I
0F
1E
1B
0=
0;
00
0A
0>
17
03
1,
#85000
1!
1t
#90000
b1100011001010011101001 "
b11110000001011000100100 #
b100110 $
b100011001010011101001 "
b11110010001011000100100 #
b10010101 %
b11100010001011000100100 #
b11100010001011000100000 #
b11100010001011000100010 #
b10100110 $
b11101010001011000100010 #
b11101010011011000100010 #
b11101010011010000100010 #
b11010101 %
b11101010011010000100011 #
b100011000010011101001 "
b1011101 &
b11101010011010000101011 #
b110011000010011101001 "
b110011010010011101001 "
b10100010 $
b111011010010011101001 "
b111011010010011001001 "
b111011010010111001001 "
b10111011010010111001001 "
b10101010 $
b10111011010110111001001 "
b11101010011010000111011 #
b11000101 %
b1000101 %
b1010101 &
b10111011010110111001011 "
b1000101 &
b11101010011010001111011 #
b10101010011010001111011 #
b110111011010110111001011 "
b101 &
b110111011010110111011011 "
b10101110011010001111011 #
0!
0~
0y
0"!
0#!
00!
09!
1?!
0B!
1/!
02!
15!
1A!
1E!
1H!
0K!
1N!
1Q!
1W!
0`!
1l!
1u!
1x!
1{!
0~!
0&"
1)"
1G!
1P!
0S!
1\!
1e!
0h!
1k!
0n!
1z!
1}!
0%"
1("
1+"
0t
1%!
01!
0:!
1@!
0C!
1F!
1I!
0L!
1O!
1R!
1X!
0a!
1m!
1v!
1y!
1|!
0!"
0'"
1*"
0U
0X
1Z
0[
1\
1]
0^
1_
1`
1b
0e
1i
1l
1m
1n
0o
0q
1r
0H
0E
1C
0B
1A
1@
0?
1>
1=
1;
08
14
11
10
1/
0.
0,
1+
#95000
1!
1t
#100000
b10101110011110001111011 #
b110111011010100111011011 "
b10111010 $
b1000001 %
b110111011010100111010011 "
b100000101 &
b10001110011110001111011 #
b100000100 &
b10001110011110011111011 #
b110111010010100111010011 "
b10011010 $
b10001110011110111111011 #
b110111010010101111010011 "
b10001110011110111011011 #
b1000000 %
b10011011 $
b10001110111110111011011 #
b100000000 &
b110111010010101110010011 "
b110011010010101110010011 "
b10001110111100111011011 #
b1110111100111011011 #
b111011010010101110010011 "
b1100111100111011011 #
b1000010 %
b11100111100111011011 #
b11011 $
b10100111100111011011 #
b10100101100111011011 #
b10100101101111011011 #
b10 %
b10100101101111011010 #
b111011010011101110010011 "
b100100000 &
b10100101101111010010 #
b111011010011101110110011 "
b111011010011101010110011 "
b101011010011101010110011 "
b10010 %
b100101000 &
b101011010011101010110001 "
b100111000 &
b10100101101110010010 #
b1011010011101010110001 "
b101111000 &
b1011010011101010100001 "
b10000101101110010010 #
0!
0{
0}
1~
1y
1"!
1#!
1v
0-!
10!
03!
19!
0?!
1,!
18!
0;!
0A!
0G!
0M!
0P!
1S!
0V!
0\!
1_!
0b!
1h!
0q!
0""
1%"
0("
0+"
0E!
0N!
0T!
0W!
1Z!
1]!
1`!
0c!
1f!
0l!
1o!
0u!
0x!
0{!
1~!
0#"
0)"
0t
0%!
0x
0'!
0.!
11!
04!
1:!
0@!
0O!
0U!
0X!
1^!
1a!
0d!
0$"
0*"
0F!
1[!
1g!
0m!
1p!
0v!
0y!
0|!
1!"
1*!
0T
1U
0V
1X
0Z
0_
0a
0b
1d
1e
0f
0p
0r
0\
1c
1g
0i
1j
0l
0m
0n
1o
0I
1H
0G
1E
0C
0>
0<
0;
19
18
07
0-
0+
0A
1:
16
04
13
01
00
0/
1.
#105000
1!
1t
#110000
b110010 %
b1011000011101010100001 "
b10001101101110010010 #
b10001100101110010010 #
b100010001100101110010010 #
b1011100011101010100001 "
b1101111000 &
b1011100111101010100001 "
b11001 $
b100010001100101110010110 #
b1001100111101010100001 "
b1001100101101010100001 "
b1000100101101010100001 "
b10001 $
b1000100101001010100001 "
b101010001100101110010110 #
b110110 %
b1001111000 &
b1001111001 &
b101010001100101010010110 #
b1000100101000010100001 "
b101010001100101010110110 #
b110111 %
b10000 $
b101010001000101010110110 #
b1001111101 &
b1100100101000010100001 "
b101010011000101010110110 #
b101000011000101010110110 #
b10010000 $
b101000011000100010110110 #
b1110111 %
b101000011000100010110111 #
b1100100100000010100001 "
b1001011101 &
b101000011000100010111111 #
b1100111 %
b1001010101 &
b101100100100000010100001 "
b101000111000100010111111 #
0!
0,!
0/!
05!
1A!
1{
1}
0~
0"!
0v
1w
1E!
1K!
1N!
1T!
0]!
0`!
0i!
0o!
1r!
1u!
1x!
0~!
1&"
1,"
0_!
0e!
0h!
0k!
1n!
0t!
1w!
0z!
0}!
1""
1+"
1-!
13!
09!
1<!
1?!
0t
1.!
1F!
1L!
1O!
1U!
0^!
0a!
0j!
0p!
1s!
1v!
1y!
0!"
1'"
1-"
14!
0:!
1=!
1@!
1T
1\
1^
1_
1a
0d
0e
0h
0j
1k
1l
1m
0o
1q
1s
1V
0X
1Y
1Z
1I
1A
1?
1>
1<
09
08
05
03
12
11
10
0.
1,
1*
1G
0E
1D
1C
#115000
1!
1t
#120000
b1001010111 &
b101100100100000000100001 "
b101000111000100010111101 #
b10010100 $
b101000111000100010101101 #
b101000111000000010101101 #
b10000100 $
b101100111000000010101101 #
b101100111000000000101101 #
b101100101100000000100001 "
b10100100 $
b111100111000000000101101 #
b100100101100000000100001 "
b1100101 %
b111101111000000000101101 #
b100100101100000000000001 "
b100100101100000100000001 "
b110100101100000100000001 "
b1000010111 &
b110100111100000100000001 "
b111101110000000000101101 #
b11101110000000000101101 #
b110100011100000100000001 "
b10111 &
b110100011000000100000001 "
b10100110 $
b11101110000000000101001 #
b110110011000000100000001 "
b110110011010000100000001 "
b110111011010000100000001 "
b10101110 $
b1100001 %
b100010111 &
b11101110000000100101001 #
b1100000 %
b10101111 $
b110011011010000100000001 "
b11101100000000100101001 #
b11111100000000100101001 #
b101111 $
b11111100000001100101001 #
b100000 %
b11111100000001100101000 #
b110000 %
b100011111 &
0!
0-!
00!
03!
19!
0?!
1,!
1/!
12!
15!
08!
1;!
0A!
0E!
0H!
0K!
0Q!
0Z!
1]!
1`!
0f!
0r!
0u!
1{!
1~!
1#"
1)"
0,"
0S!
0Y!
1\!
1k!
0n!
1q!
1t!
0w!
1z!
1}!
0""
0%"
1("
1|
1~
0#!
1v
0w
0t
0.!
01!
04!
1:!
0@!
0F!
0I!
0L!
0R!
0[!
1^!
1a!
0g!
0s!
0v!
1|!
1!"
1$"
1*"
0-"
0T
0U
0V
1X
0Z
0\
0]
0^
0`
0c
1d
1e
0g
0k
0l
1n
1o
1p
1r
0s
0I
0H
0G
1E
0C
0A
0@
0?
0=
0:
19
18
06
02
01
1/
1.
1-
1+
0*
#125000
1!
1t
