Xmit/simulation/qsim/Xmit.msim.vcd
$comment
	File created using the following command:
		vcd file Xmit.msim.vcd -direction
$end
$date
	Tue Nov 22 01:41:42 2016
$end
$version
	ModelSim Version 10.1d
$end
$timescale
	1ps
$end
$scope module priority_FSM_vlg_vec_tst $end
$var reg 1 ! clk_phy $end
$var reg 24 " ctrl_block_hi_in [23:0] $end
$var reg 24 # ctrl_block_lo_in [23:0] $end
$var reg 8 $ data_hi_in [7:0] $end
$var reg 8 % data_lo_in [7:0] $end
$var reg 1 & hi_empty_in $end
$var reg 1 ' lo_empty_in $end
$var reg 1 ( reset $end
$var wire 1 ) ctrl_block_out [23] $end
$var wire 1 * ctrl_block_out [22] $end
$var wire 1 + ctrl_block_out [21] $end
$var wire 1 , ctrl_block_out [20] $end
$var wire 1 - ctrl_block_out [19] $end
$var wire 1 . ctrl_block_out [18] $end
$var wire 1 / ctrl_block_out [17] $end
$var wire 1 0 ctrl_block_out [16] $end
$var wire 1 1 ctrl_block_out [15] $end
$var wire 1 2 ctrl_block_out [14] $end
$var wire 1 3 ctrl_block_out [13] $end
$var wire 1 4 ctrl_block_out [12] $end
$var wire 1 5 ctrl_block_out [11] $end
$var wire 1 6 ctrl_block_out [10] $end
$var wire 1 7 ctrl_block_out [9] $end
$var wire 1 8 ctrl_block_out [8] $end
$var wire 1 9 ctrl_block_out [7] $end
$var wire 1 : ctrl_block_out [6] $end
$var wire 1 ; ctrl_block_out [5] $end
$var wire 1 < ctrl_block_out [4] $end
$var wire 1 = ctrl_block_out [3] $end
$var wire 1 > ctrl_block_out [2] $end
$var wire 1 ? ctrl_block_out [1] $end
$var wire 1 @ ctrl_block_out [0] $end
$var wire 1 A data_out [7] $end
$var wire 1 B data_out [6] $end
$var wire 1 C data_out [5] $end
$var wire 1 D data_out [4] $end
$var wire 1 E data_out [3] $end
$var wire 1 F data_out [2] $end
$var wire 1 G data_out [1] $end
$var wire 1 H data_out [0] $end
$var wire 1 I pop_hi $end
$var wire 1 J pop_lo $end
$scope module i1 $end
$var wire 1 K gnd $end
$var wire 1 L vcc $end
$var wire 1 M unknown $end
$var tri1 1 N devclrn $end
$var tri1 1 O devpor $end
$var tri1 1 P devoe $end
$var wire 1 Q pop_lo~output_o $end
$var wire 1 R pop_hi~output_o $end
$var wire 1 S data_out[0]~output_o $end
$var wire 1 T data_out[1]~output_o $end
$var wire 1 U data_out[2]~output_o $end
$var wire 1 V data_out[3]~output_o $end
$var wire 1 W data_out[4]~output_o $end
$var wire 1 X data_out[5]~output_o $end
$var wire 1 Y data_out[6]~output_o $end
$var wire 1 Z data_out[7]~output_o $end
$var wire 1 [ ctrl_block_out[0]~output_o $end
$var wire 1 \ ctrl_block_out[1]~output_o $end
$var wire 1 ] ctrl_block_out[2]~output_o $end
$var wire 1 ^ ctrl_block_out[3]~output_o $end
$var wire 1 _ ctrl_block_out[4]~output_o $end
$var wire 1 ` ctrl_block_out[5]~output_o $end
$var wire 1 a ctrl_block_out[6]~output_o $end
$var wire 1 b ctrl_block_out[7]~output_o $end
$var wire 1 c ctrl_block_out[8]~output_o $end
$var wire 1 d ctrl_block_out[9]~output_o $end
$var wire 1 e ctrl_block_out[10]~output_o $end
$var wire 1 f ctrl_block_out[11]~output_o $end
$var wire 1 g ctrl_block_out[12]~output_o $end
$var wire 1 h ctrl_block_out[13]~output_o $end
$var wire 1 i ctrl_block_out[14]~output_o $end
$var wire 1 j ctrl_block_out[15]~output_o $end
$var wire 1 k ctrl_block_out[16]~output_o $end
$var wire 1 l ctrl_block_out[17]~output_o $end
$var wire 1 m ctrl_block_out[18]~output_o $end
$var wire 1 n ctrl_block_out[19]~output_o $end
$var wire 1 o ctrl_block_out[20]~output_o $end
$var wire 1 p ctrl_block_out[21]~output_o $end
$var wire 1 q ctrl_block_out[22]~output_o $end
$var wire 1 r ctrl_block_out[23]~output_o $end
$var wire 1 s clk_phy~input_o $end
$var wire 1 t lo_empty_in~input_o $end
$var wire 1 u hi_empty_in~input_o $end
$var wire 1 v process_1~0_combout $end
$var wire 1 w reset~input_o $end
$var wire 1 x pop_lo~reg0_q $end
$var wire 1 y pop_hi~0_combout $end
$var wire 1 z pop_hi~reg0_q $end
$var wire 1 { data_sel~0_combout $end
$var wire 1 | data_sel~q $end
$var wire 1 } data_hi_in[0]~input_o $end
$var wire 1 ~ data_lo_in[0]~input_o $end
$var wire 1 !! data_out~0_combout $end
$var wire 1 "! data_hi_in[1]~input_o $end
$var wire 1 #! data_lo_in[1]~input_o $end
$var wire 1 $! data_out~1_combout $end
$var wire 1 %! data_hi_in[2]~input_o $end
$var wire 1 &! data_lo_in[2]~input_o $end
$var wire 1 '! data_out~2_combout $end
$var wire 1 (! data_hi_in[3]~input_o $end
$var wire 1 )! data_lo_in[3]~input_o $end
$var wire 1 *! data_out~3_combout $end
$var wire 1 +! data_hi_in[4]~input_o $end
$var wire 1 ,! data_lo_in[4]~input_o $end
$var wire 1 -! data_out~4_combout $end
$var wire 1 .! data_hi_in[5]~input_o $end
$var wire 1 /! data_lo_in[5]~input_o $end
$var wire 1 0! data_out~5_combout $end
$var wire 1 1! data_hi_in[6]~input_o $end
$var wire 1 2! data_lo_in[6]~input_o $end
$var wire 1 3! data_out~6_combout $end
$var wire 1 4! data_hi_in[7]~input_o $end
$var wire 1 5! data_lo_in[7]~input_o $end
$var wire 1 6! data_out~7_combout $end
$var wire 1 7! ctrl_block_hi_in[0]~input_o $end
$var wire 1 8! ctrl_block_lo_in[0]~input_o $end
$var wire 1 9! ctrl_block_out~0_combout $end
$var wire 1 :! ctrl_block_hi_in[1]~input_o $end
$var wire 1 ;! ctrl_block_lo_in[1]~input_o $end
$var wire 1 <! ctrl_block_out~1_combout $end
$var wire 1 =! ctrl_block_hi_in[2]~input_o $end
$var wire 1 >! ctrl_block_lo_in[2]~input_o $end
$var wire 1 ?! ctrl_block_out~2_combout $end
$var wire 1 @! ctrl_block_hi_in[3]~input_o $end
$var wire 1 A! ctrl_block_lo_in[3]~input_o $end
$var wire 1 B! ctrl_block_out~3_combout $end
$var wire 1 C! ctrl_block_hi_in[4]~input_o $end
$var wire 1 D! ctrl_block_lo_in[4]~input_o $end
$var wire 1 E! ctrl_block_out~4_combout $end
$var wire 1 F! ctrl_block_hi_in[5]~input_o $end
$var wire 1 G! ctrl_block_lo_in[5]~input_o $end
$var wire 1 H! ctrl_block_out~5_combout $end
$var wire 1 I! ctrl_block_hi_in[6]~input_o $end
$var wire 1 J! ctrl_block_lo_in[6]~input_o $end
$var wire 1 K! ctrl_block_out~6_combout $end
$var wire 1 L! ctrl_block_hi_in[7]~input_o $end
$var wire 1 M! ctrl_block_lo_in[7]~input_o $end
$var wire 1 N! ctrl_block_out~7_combout $end
$var wire 1 O! ctrl_block_hi_in[8]~input_o $end
$var wire 1 P! ctrl_block_lo_in[8]~input_o $end
$var wire 1 Q! ctrl_block_out~8_combout $end
$var wire 1 R! ctrl_block_hi_in[9]~input_o $end
$var wire 1 S! ctrl_block_lo_in[9]~input_o $end
$var wire 1 T! ctrl_block_out~9_combout $end
$var wire 1 U! ctrl_block_hi_in[10]~input_o $end
$var wire 1 V! ctrl_block_lo_in[10]~input_o $end
$var wire 1 W! ctrl_block_out~10_combout $end
$var wire 1 X! ctrl_block_hi_in[11]~input_o $end
$var wire 1 Y! ctrl_block_lo_in[11]~input_o $end
$var wire 1 Z! ctrl_block_out~11_combout $end
$var wire 1 [! ctrl_block_hi_in[12]~input_o $end
$var wire 1 \! ctrl_block_lo_in[12]~input_o $end
$var wire 1 ]! ctrl_block_out~12_combout $end
$var wire 1 ^! ctrl_block_hi_in[13]~input_o $end
$var wire 1 _! ctrl_block_lo_in[13]~input_o $end
$var wire 1 `! ctrl_block_out~13_combout $end
$var wire 1 a! ctrl_block_hi_in[14]~input_o $end
$var wire 1 b! ctrl_block_lo_in[14]~input_o $end
$var wire 1 c! ctrl_block_out~14_combout $end
$var wire 1 d! ctrl_block_hi_in[15]~input_o $end
$var wire 1 e! ctrl_block_lo_in[15]~input_o $end
$var wire 1 f! ctrl_block_out~15_combout $end
$var wire 1 g! ctrl_block_hi_in[16]~input_o $end
$var wire 1 h! ctrl_block_lo_in[16]~input_o $end
$var wire 1 i! ctrl_block_out~16_combout $end
$var wire 1 j! ctrl_block_hi_in[17]~input_o $end
$var wire 1 k! ctrl_block_lo_in[17]~input_o $end
$var wire 1 l! ctrl_block_out~17_combout $end
$var wire 1 m! ctrl_block_hi_in[18]~input_o $end
$var wire 1 n! ctrl_block_lo_in[18]~input_o $end
$var wire 1 o! ctrl_block_out~18_combout $end
$var wire 1 p! ctrl_block_hi_in[19]~input_o $end
$var wire 1 q! ctrl_block_lo_in[19]~input_o $end
$var wire 1 r! ctrl_block_out~19_combout $end
$var wire 1 s! ctrl_block_hi_in[20]~input_o $end
$var wire 1 t! ctrl_block_lo_in[20]~input_o $end
$var wire 1 u! ctrl_block_out~20_combout $end
$var wire 1 v! ctrl_block_hi_in[21]~input_o $end
$var wire 1 w! ctrl_block_lo_in[21]~input_o $end
$var wire 1 x! ctrl_block_out~21_combout $end
$var wire 1 y! ctrl_block_hi_in[22]~input_o $end
$var wire 1 z! ctrl_block_lo_in[22]~input_o $end
$var wire 1 {! ctrl_block_out~22_combout $end
$var wire 1 |! ctrl_block_hi_in[23]~input_o $end
$var wire 1 }! ctrl_block_lo_in[23]~input_o $end
$var wire 1 ~! ctrl_block_out~23_combout $end
$upscope $end
$upscope $end
$enddefinitions $end
#0
$dumpvars
0!
b111111111111111111111111 "
b0 #
b11111111 $
b0 %
0&
0'
1(
0l
0m
0n
0o
0p
0q
0r
0s
0t
0u
0v
1w
0x
1y
0z
1{
0|
1}
0~
0!!
1"!
0#!
0$!
1%!
0&!
0'!
1(!
0)!
0*!
1+!
0,!
0-!
1.!
0/!
00!
11!
02!
03!
14!
05!
06!
17!
08!
09!
1:!
0;!
0<!
1=!
0>!
0?!
1@!
0A!
0B!
1C!
0D!
0E!
1F!
0G!
0H!
1I!
0@
0?
0>
0=
0<
0;
0:
09
08
07
06
05
04
03
02
01
00
0/
0.
0-
0,
0+
0*
0)
0H
0G
0F
0E
0D
0C
0B
0A
0I
0J
0K
1L
xM
1N
1O
1P
0Q
0R
0S
0T
0U
0V
0W
0X
0Y
0Z
0[
0\
0]
0^
0_
0`
0a
0b
0c
0d
0e
0f
0g
0h
0i
0j
0k
0J!
0K!
1L!
0M!
0N!
1O!
0P!
0Q!
1R!
0S!
0T!
1U!
0V!
0W!
1X!
0Y!
0Z!
1[!
0\!
0]!
1^!
0_!
0`!
1a!
0b!
0c!
1d!
0e!
0f!
1g!
0h!
0i!
1j!
0k!
0l!
1m!
0n!
0o!
1p!
0q!
0r!
1s!
0t!
0u!
1v!
0w!
0x!
1y!
0z!
0{!
1|!
0}!
0~!
$end
#5000
1!
1s
#10000
0!
0s
#15000
1!
1s
#20000
0!
0s
#25000
1'
1!
1t
1s
#30000
0!
0s
#35000
1!
1s
#40000
0(
0!
0w
0s
#45000
1!
1s
1|
1z
1R
1I
1!!
1$!
1'!
1*!
1-!
10!
13!
16!
19!
1<!
1?!
1B!
1E!
1H!
1K!
1N!
1Q!
1T!
1W!
1Z!
1]!
1`!
1c!
1f!
1i!
1l!
1o!
1r!
1u!
1x!
1{!
1~!
1S
1T
1U
1V
1W
1X
1Y
1Z
1[
1\
1]
1^
1_
1`
1a
1b
1c
1d
1e
1f
1g
1h
1i
1j
1k
1l
1m
1n
1o
1p
1q
1r
1H
1G
1F
1E
1D
1C
1B
1A
1@
1?
1>
1=
1<
1;
1:
19
18
17
16
15
14
13
12
11
10
1/
1.
1-
1,
1+
1*
1)
#50000
1&
0'
0!
1u
0t
0s
1v
0y
0{
#55000
1!
1s
0|
0z
1x
0R
1Q
0I
1J
0!!
0$!
0'!
0*!
0-!
00!
03!
06!
09!
0<!
0?!
0B!
0E!
0H!
0K!
0N!
0Q!
0T!
0W!
0Z!
0]!
0`!
0c!
0f!
0i!
0l!
0o!
0r!
0u!
0x!
0{!
0~!
0S
0T
0U
0V
0W
0X
0Y
0Z
0[
0\
0]
0^
0_
0`
0a
0b
0c
0d
0e
0f
0g
0h
0i
0j
0k
0l
0m
0n
0o
0p
0q
0r
0H
0G
0F
0E
0D
0C
0B
0A
0@
0?
0>
0=
0<
0;
0:
09
08
07
06
05
04
03
02
01
00
0/
0.
0-
0,
0+
0*
0)
#60000
0!
0s
#65000
1!
1s
#70000
0!
0s
#75000
1'
1!
1t
1s
0v
#80000
0!
0s
#85000
1!
1s
0x
0Q
0J
#90000
0!
0s
#95000
1!
1s
#100000
0&
0'
0!
0u
0t
0s
1y
1{
#105000
1!
1s
1|
1z
1R
1I
1!!
1$!
1'!
1*!
1-!
10!
13!
16!
19!
1<!
1?!
1B!
1E!
1H!
1K!
1N!
1Q!
1T!
1W!
1Z!
1]!
1`!
1c!
1f!
1i!
1l!
1o!
1r!
1u!
1x!
1{!
1~!
1S
1T
1U
1V
1W
1X
1Y
1Z
1[
1\
1]
1^
1_
1`
1a
1b
1c
1d
1e
1f
1g
1h
1i
1j
1k
1l
1m
1n
1o
1p
1q
1r
1H
1G
1F
1E
1D
1C
1B
1A
1@
1?
1>
1=
1<
1;
1:
19
18
17
16
15
14
13
12
11
10
1/
1.
1-
1,
1+
1*
1)
#110000
0!
0s
#115000
1!
1s
#120000
0!
0s
#125000
1'
1!
1t
1s
#130000
0!
0s
#135000
1!
1s
#140000
0!
0s
#145000
1!
1s
#150000
1&
0'
0!
1u
0t
0s
1v
0y
0{
#155000
1!
1s
0|
0z
1x
0R
1Q
0I
1J
0!!
0$!
0'!
0*!
0-!
00!
03!
06!
09!
0<!
0?!
0B!
0E!
0H!
0K!
0N!
0Q!
0T!
0W!
0Z!
0]!
0`!
0c!
0f!
0i!
0l!
0o!
0r!
0u!
0x!
0{!
0~!
0S
0T
0U
0V
0W
0X
0Y
0Z
0[
0\
0]
0^
0_
0`
0a
0b
0c
0d
0e
0f
0g
0h
0i
0j
0k
0l
0m
0n
0o
0p
0q
0r
0H
0G
0F
0E
0D
0C
0B
0A
0@
0?
0>
0=
0<
0;
0:
09
08
07
06
05
04
03
02
01
00
0/
0.
0-
0,
0+
0*
0)
#160000
0!
0s
#165000
1!
1s
#170000
0!
0s
#175000
1'
1!
1t
1s
0v
#180000
0!
0s
#185000
1!
1s
0x
0Q
0J
#190000
0!
0s
#195000
1!
1s
#200000
0&
0'
0!
0u
0t
0s
1y
1{
#205000
1!
1s
1|
1z
1R
1I
1!!
1$!
1'!
1*!
1-!
10!
13!
16!
19!
1<!
1?!
1B!
1E!
1H!
1K!
1N!
1Q!
1T!
1W!
1Z!
1]!
1`!
1c!
1f!
1i!
1l!
1o!
1r!
1u!
1x!
1{!
1~!
1S
1T
1U
1V
1W
1X
1Y
1Z
1[
1\
1]
1^
1_
1`
1a
1b
1c
1d
1e
1f
1g
1h
1i
1j
1k
1l
1m
1n
1o
1p
1q
1r
1H
1G
1F
1E
1D
1C
1B
1A
1@
1?
1>
1=
1<
1;
1:
19
18
17
16
15
14
13
12
11
10
1/
1.
1-
1,
1+
1*
1)
#210000
0!
0s
#215000
1!
1s
#220000
0!
0s
#225000
1'
1!
1t
1s
#230000
0!
0s
#235000
1!
1s
#240000
0!
0s
#245000
1!
1s
#250000
1&
0'
0!
1u
0t
0s
1v
0y
0{
#255000
1!
1s
0|
0z
1x
0R
1Q
0I
1J
0!!
0$!
0'!
0*!
0-!
00!
03!
06!
09!
0<!
0?!
0B!
0E!
0H!
0K!
0N!
0Q!
0T!
0W!
0Z!
0]!
0`!
0c!
0f!
0i!
0l!
0o!
0r!
0u!
0x!
0{!
0~!
0S
0T
0U
0V
0W
0X
0Y
0Z
0[
0\
0]
0^
0_
0`
0a
0b
0c
0d
0e
0f
0g
0h
0i
0j
0k
0l
0m
0n
0o
0p
0q
0r
0H
0G
0F
0E
0D
0C
0B
0A
0@
0?
0>
0=
0<
0;
0:
09
08
07
06
05
04
03
02
01
00
0/
0.
0-
0,
0+
0*
0)
#260000
0!
0s
#265000
1!
1s
#270000
0!
0s
#275000
1'
1!
1t
1s
0v
#280000
0!
0s
#285000
1!
1s
0x
0Q
0J
#290000
0!
0s
#295000
1!
1s
#300000
0&
0'
0!
0u
0t
0s
1y
1{
#305000
1!
1s
1|
1z
1R
1I
1!!
1$!
1'!
1*!
1-!
10!
13!
16!
19!
1<!
1?!
1B!
1E!
1H!
1K!
1N!
1Q!
1T!
1W!
1Z!
1]!
1`!
1c!
1f!
1i!
1l!
1o!
1r!
1u!
1x!
1{!
1~!
1S
1T
1U
1V
1W
1X
1Y
1Z
1[
1\
1]
1^
1_
1`
1a
1b
1c
1d
1e
1f
1g
1h
1i
1j
1k
1l
1m
1n
1o
1p
1q
1r
1H
1G
1F
1E
1D
1C
1B
1A
1@
1?
1>
1=
1<
1;
1:
19
18
17
16
15
14
13
12
11
10
1/
1.
1-
1,
1+
1*
1)
#310000
0!
0s
#315000
1!
1s
#320000
0!
0s
#325000
1'
1!
1t
1s
#330000
0!
0s
#335000
1!
1s
#340000
0!
0s
#345000
1!
1s
#350000
1&
0'
0!
1u
0t
0s
1v
0y
0{
#355000
1!
1s
0|
0z
1x
0R
1Q
0I
1J
0!!
0$!
0'!
0*!
0-!
00!
03!
06!
09!
0<!
0?!
0B!
0E!
0H!
0K!
0N!
0Q!
0T!
0W!
0Z!
0]!
0`!
0c!
0f!
0i!
0l!
0o!
0r!
0u!
0x!
0{!
0~!
0S
0T
0U
0V
0W
0X
0Y
0Z
0[
0\
0]
0^
0_
0`
0a
0b
0c
0d
0e
0f
0g
0h
0i
0j
0k
0l
0m
0n
0o
0p
0q
0r
0H
0G
0F
0E
0D
0C
0B
0A
0@
0?
0>
0=
0<
0;
0:
09
08
07
06
05
04
03
02
01
00
0/
0.
0-
0,
0+
0*
0)
#360000
0!
0s
#365000
1!
1s
#370000
0!
0s
#375000
1'
1!
1t
1s
0v
#380000
0!
0s
#385000
1!
1s
0x
0Q
0J
#390000
0!
0s
#395000
1!
1s
#400000
0&
0'
0!
0u
0t
0s
1y
1{
#405000
1!
1s
1|
1z
1R
1I
1!!
1$!
1'!
1*!
1-!
10!
13!
16!
19!
1<!
1?!
1B!
1E!
1H!
1K!
1N!
1Q!
1T!
1W!
1Z!
1]!
1`!
1c!
1f!
1i!
1l!
1o!
1r!
1u!
1x!
1{!
1~!
1S
1T
1U
1V
1W
1X
1Y
1Z
1[
1\
1]
1^
1_
1`
1a
1b
1c
1d
1e
1f
1g
1h
1i
1j
1k
1l
1m
1n
1o
1p
1q
1r
1H
1G
1F
1E
1D
1C
1B
1A
1@
1?
1>
1=
1<
1;
1:
19
18
17
16
15
14
13
12
11
10
1/
1.
1-
1,
1+
1*
1)
#410000
0!
0s
#415000
1!
1s
#420000
0!
0s
#425000
1'
1!
1t
1s
#430000
0!
0s
#435000
1!
1s
#440000
0!
0s
#445000
1!
1s
#450000
1&
0'
0!
1u
0t
0s
1v
0y
0{
#455000
1!
1s
0|
0z
1x
0R
1Q
0I
1J
0!!
0$!
0'!
0*!
0-!
00!
03!
06!
09!
0<!
0?!
0B!
0E!
0H!
0K!
0N!
0Q!
0T!
0W!
0Z!
0]!
0`!
0c!
0f!
0i!
0l!
0o!
0r!
0u!
0x!
0{!
0~!
0S
0T
0U
0V
0W
0X
0Y
0Z
0[
0\
0]
0^
0_
0`
0a
0b
0c
0d
0e
0f
0g
0h
0i
0j
0k
0l
0m
0n
0o
0p
0q
0r
0H
0G
0F
0E
0D
0C
0B
0A
0@
0?
0>
0=
0<
0;
0:
09
08
07
06
05
04
03
02
01
00
0/
0.
0-
0,
0+
0*
0)
#460000
0!
0s
#465000
1!
1s
#470000
0!
0s
#475000
1'
1!
1t
1s
0v
#480000
0!
0s
#485000
1!
1s
0x
0Q
0J
#490000
0!
0s
#495000
1!
1s
#500000
0&
0'
0!
0u
0t
0s
1y
1{
#505000
1!
1s
1|
1z
1R
1I
1!!
1$!
1'!
1*!
1-!
10!
13!
16!
19!
1<!
1?!
1B!
1E!
1H!
1K!
1N!
1Q!
1T!
1W!
1Z!
1]!
1`!
1c!
1f!
1i!
1l!
1o!
1r!
1u!
1x!
1{!
1~!
1S
1T
1U
1V
1W
1X
1Y
1Z
1[
1\
1]
1^
1_
1`
1a
1b
1c
1d
1e
1f
1g
1h
1i
1j
1k
1l
1m
1n
1o
1p
1q
1r
1H
1G
1F
1E
1D
1C
1B
1A
1@
1?
1>
1=
1<
1;
1:
19
18
17
16
15
14
13
12
11
10
1/
1.
1-
1,
1+
1*
1)
#510000
0!
0s
#515000
1!
1s
#520000
0!
0s
#525000
1'
1!
1t
1s
#530000
0!
0s
#535000
1!
1s
#540000
0!
0s
#545000
1!
1s
#550000
1&
0'
0!
1u
0t
0s
1v
0y
0{
#555000
1!
1s
0|
0z
1x
0R
1Q
0I
1J
0!!
0$!
0'!
0*!
0-!
00!
03!
06!
09!
0<!
0?!
0B!
0E!
0H!
0K!
0N!
0Q!
0T!
0W!
0Z!
0]!
0`!
0c!
0f!
0i!
0l!
0o!
0r!
0u!
0x!
0{!
0~!
0S
0T
0U
0V
0W
0X
0Y
0Z
0[
0\
0]
0^
0_
0`
0a
0b
0c
0d
0e
0f
0g
0h
0i
0j
0k
0l
0m
0n
0o
0p
0q
0r
0H
0G
0F
0E
0D
0C
0B
0A
0@
0?
0>
0=
0<
0;
0:
09
08
07
06
05
04
03
02
01
00
0/
0.
0-
0,
0+
0*
0)
#560000
0!
0s
#565000
1!
1s
#570000
0!
0s
#575000
1'
1!
1t
1s
0v
#580000
0!
0s
#585000
1!
1s
0x
0Q
0J
#590000
0!
0s
#595000
1!
1s
#600000
0&
0'
0!
0u
0t
0s
1y
1{
#605000
1!
1s
1|
1z
1R
1I
1!!
1$!
1'!
1*!
1-!
10!
13!
16!
19!
1<!
1?!
1B!
1E!
1H!
1K!
1N!
1Q!
1T!
1W!
1Z!
1]!
1`!
1c!
1f!
1i!
1l!
1o!
1r!
1u!
1x!
1{!
1~!
1S
1T
1U
1V
1W
1X
1Y
1Z
1[
1\
1]
1^
1_
1`
1a
1b
1c
1d
1e
1f
1g
1h
1i
1j
1k
1l
1m
1n
1o
1p
1q
1r
1H
1G
1F
1E
1D
1C
1B
1A
1@
1?
1>
1=
1<
1;
1:
19
18
17
16
15
14
13
12
11
10
1/
1.
1-
1,
1+
1*
1)
#610000
0!
0s
#615000
1!
1s
#620000
0!
0s
#625000
1'
1!
1t
1s
#630000
0!
0s
#635000
1!
1s
#640000
0!
0s
#645000
1!
1s
#650000
1&
0'
0!
1u
0t
0s
1v
0y
0{
#655000
1!
1s
0|
0z
1x
0R
1Q
0I
1J
0!!
0$!
0'!
0*!
0-!
00!
03!
06!
09!
0<!
0?!
0B!
0E!
0H!
0K!
0N!
0Q!
0T!
0W!
0Z!
0]!
0`!
0c!
0f!
0i!
0l!
0o!
0r!
0u!
0x!
0{!
0~!
0S
0T
0U
0V
0W
0X
0Y
0Z
0[
0\
0]
0^
0_
0`
0a
0b
0c
0d
0e
0f
0g
0h
0i
0j
0k
0l
0m
0n
0o
0p
0q
0r
0H
0G
0F
0E
0D
0C
0B
0A
0@
0?
0>
0=
0<
0;
0:
09
08
07
06
05
04
03
02
01
00
0/
0.
0-
0,
0+
0*
0)
#660000
0!
0s
#665000
1!
1s
#670000
0!
0s
#675000
1'
1!
1t
1s
0v
#680000
0!
0s
#685000
1!
1s
0x
0Q
0J
#690000
0!
0s
#695000
1!
1s
#700000
0&
0'
0!
0u
0t
0s
1y
1{
#705000
1!
1s
1|
1z
1R
1I
1!!
1$!
1'!
1*!
1-!
10!
13!
16!
19!
1<!
1?!
1B!
1E!
1H!
1K!
1N!
1Q!
1T!
1W!
1Z!
1]!
1`!
1c!
1f!
1i!
1l!
1o!
1r!
1u!
1x!
1{!
1~!
1S
1T
1U
1V
1W
1X
1Y
1Z
1[
1\
1]
1^
1_
1`
1a
1b
1c
1d
1e
1f
1g
1h
1i
1j
1k
1l
1m
1n
1o
1p
1q
1r
1H
1G
1F
1E
1D
1C
1B
1A
1@
1?
1>
1=
1<
1;
1:
19
18
17
16
15
14
13
12
11
10
1/
1.
1-
1,
1+
1*
1)
#710000
0!
0s
#715000
1!
1s
#720000
0!
0s
#725000
1'
1!
1t
1s
#730000
0!
0s
#735000
1!
1s
#740000
0!
0s
#745000
1!
1s
#750000
1&
0'
0!
1u
0t
0s
1v
0y
0{
#755000
1!
1s
0|
0z
1x
0R
1Q
0I
1J
0!!
0$!
0'!
0*!
0-!
00!
03!
06!
09!
0<!
0?!
0B!
0E!
0H!
0K!
0N!
0Q!
0T!
0W!
0Z!
0]!
0`!
0c!
0f!
0i!
0l!
0o!
0r!
0u!
0x!
0{!
0~!
0S
0T
0U
0V
0W
0X
0Y
0Z
0[
0\
0]
0^
0_
0`
0a
0b
0c
0d
0e
0f
0g
0h
0i
0j
0k
0l
0m
0n
0o
0p
0q
0r
0H
0G
0F
0E
0D
0C
0B
0A
0@
0?
0>
0=
0<
0;
0:
09
08
07
06
05
04
03
02
01
00
0/
0.
0-
0,
0+
0*
0)
#760000
0!
0s
#765000
1!
1s
#770000
0!
0s
#775000
1'
1!
1t
1s
0v
#780000
0!
0s
#785000
1!
1s
0x
0Q
0J
#790000
0!
0s
#795000
1!
1s
#800000
0&
0'
0!
0u
0t
0s
1y
1{
#805000
1!
1s
1|
1z
1R
1I
1!!
1$!
1'!
1*!
1-!
10!
13!
16!
19!
1<!
1?!
1B!
1E!
1H!
1K!
1N!
1Q!
1T!
1W!
1Z!
1]!
1`!
1c!
1f!
1i!
1l!
1o!
1r!
1u!
1x!
1{!
1~!
1S
1T
1U
1V
1W
1X
1Y
1Z
1[
1\
1]
1^
1_
1`
1a
1b
1c
1d
1e
1f
1g
1h
1i
1j
1k
1l
1m
1n
1o
1p
1q
1r
1H
1G
1F
1E
1D
1C
1B
1A
1@
1?
1>
1=
1<
1;
1:
19
18
17
16
15
14
13
12
11
10
1/
1.
1-
1,
1+
1*
1)
#810000
0!
0s
#815000
1!
1s
#820000
0!
0s
#825000
1'
1!
1t
1s
#830000
0!
0s
#835000
1!
1s
#840000
0!
0s
#845000
1!
1s
#850000
1&
0'
0!
1u
0t
0s
1v
0y
0{
#855000
1!
1s
0|
0z
1x
0R
1Q
0I
1J
0!!
0$!
0'!
0*!
0-!
00!
03!
06!
09!
0<!
0?!
0B!
0E!
0H!
0K!
0N!
0Q!
0T!
0W!
0Z!
0]!
0`!
0c!
0f!
0i!
0l!
0o!
0r!
0u!
0x!
0{!
0~!
0S
0T
0U
0V
0W
0X
0Y
0Z
0[
0\
0]
0^
0_
0`
0a
0b
0c
0d
0e
0f
0g
0h
0i
0j
0k
0l
0m
0n
0o
0p
0q
0r
0H
0G
0F
0E
0D
0C
0B
0A
0@
0?
0>
0=
0<
0;
0:
09
08
07
06
05
04
03
02
01
00
0/
0.
0-
0,
0+
0*
0)
#860000
0!
0s
#865000
1!
1s
#870000
0!
0s
#875000
1'
1!
1t
1s
0v
#880000
0!
0s
#885000
1!
1s
0x
0Q
0J
#890000
0!
0s
#895000
1!
1s
#900000
0&
0'
0!
0u
0t
0s
1y
1{
#905000
1!
1s
1|
1z
1R
1I
1!!
1$!
1'!
1*!
1-!
10!
13!
16!
19!
1<!
1?!
1B!
1E!
1H!
1K!
1N!
1Q!
1T!
1W!
1Z!
1]!
1`!
1c!
1f!
1i!
1l!
1o!
1r!
1u!
1x!
1{!
1~!
1S
1T
1U
1V
1W
1X
1Y
1Z
1[
1\
1]
1^
1_
1`
1a
1b
1c
1d
1e
1f
1g
1h
1i
1j
1k
1l
1m
1n
1o
1p
1q
1r
1H
1G
1F
1E
1D
1C
1B
1A
1@
1?
1>
1=
1<
1;
1:
19
18
17
16
15
14
13
12
11
10
1/
1.
1-
1,
1+
1*
1)
#910000
0!
0s
#915000
1!
1s
#920000
0!
0s
#925000
1'
1!
1t
1s
#930000
0!
0s
#935000
1!
1s
#940000
0!
0s
#945000
1!
1s
#950000
1&
0'
0!
1u
0t
0s
1v
0y
0{
#955000
1!
1s
0|
0z
1x
0R
1Q
0I
1J
0!!
0$!
0'!
0*!
0-!
00!
03!
06!
09!
0<!
0?!
0B!
0E!
0H!
0K!
0N!
0Q!
0T!
0W!
0Z!
0]!
0`!
0c!
0f!
0i!
0l!
0o!
0r!
0u!
0x!
0{!
0~!
0S
0T
0U
0V
0W
0X
0Y
0Z
0[
0\
0]
0^
0_
0`
0a
0b
0c
0d
0e
0f
0g
0h
0i
0j
0k
0l
0m
0n
0o
0p
0q
0r
0H
0G
0F
0E
0D
0C
0B
0A
0@
0?
0>
0=
0<
0;
0:
09
08
07
06
05
04
03
02
01
00
0/
0.
0-
0,
0+
0*
0)
#960000
0!
0s
#965000
1!
1s
#970000
0!
0s
#975000
1'
1!
1t
1s
0v
#980000
0!
0s
#985000
1!
1s
0x
0Q
0J
