Xmit/simulation/qsim/Xmit.msim.vcd
$comment
	File created using the following command:
		vcd file Xmit.msim.vcd -direction
$end
$date
	Thu Nov 17 21:12:54 2016
$end
$version
	ModelSim Version 10.4d
$end
$timescale
	1ps
$end

$scope module monitoring_logic_vlg_vec_tst $end
$var reg 1 ! clk $end
$var reg 1 " discard_enable $end
$var reg 12 # discard_frame [11:0] $end
$var reg 24 $ frame_seq [23:0] $end
$var reg 1 % reset $end
$var reg 1 & xmit_done $end
$var wire 1 ' ctrl_block_out [23] $end
$var wire 1 ( ctrl_block_out [22] $end
$var wire 1 ) ctrl_block_out [21] $end
$var wire 1 * ctrl_block_out [20] $end
$var wire 1 + ctrl_block_out [19] $end
$var wire 1 , ctrl_block_out [18] $end
$var wire 1 - ctrl_block_out [17] $end
$var wire 1 . ctrl_block_out [16] $end
$var wire 1 / ctrl_block_out [15] $end
$var wire 1 0 ctrl_block_out [14] $end
$var wire 1 1 ctrl_block_out [13] $end
$var wire 1 2 ctrl_block_out [12] $end
$var wire 1 3 ctrl_block_out [11] $end
$var wire 1 4 ctrl_block_out [10] $end
$var wire 1 5 ctrl_block_out [9] $end
$var wire 1 6 ctrl_block_out [8] $end
$var wire 1 7 ctrl_block_out [7] $end
$var wire 1 8 ctrl_block_out [6] $end
$var wire 1 9 ctrl_block_out [5] $end
$var wire 1 : ctrl_block_out [4] $end
$var wire 1 ; ctrl_block_out [3] $end
$var wire 1 < ctrl_block_out [2] $end
$var wire 1 = ctrl_block_out [1] $end
$var wire 1 > ctrl_block_out [0] $end
$var wire 1 ? discard_frame_out [11] $end
$var wire 1 @ discard_frame_out [10] $end
$var wire 1 A discard_frame_out [9] $end
$var wire 1 B discard_frame_out [8] $end
$var wire 1 C discard_frame_out [7] $end
$var wire 1 D discard_frame_out [6] $end
$var wire 1 E discard_frame_out [5] $end
$var wire 1 F discard_frame_out [4] $end
$var wire 1 G discard_frame_out [3] $end
$var wire 1 H discard_frame_out [2] $end
$var wire 1 I discard_frame_out [1] $end
$var wire 1 J discard_frame_out [0] $end
$var wire 1 K discard_looknow $end
$var wire 1 L xmit_looknow $end

$scope module i1 $end
$var wire 1 M gnd $end
$var wire 1 N vcc $end
$var wire 1 O unknown $end
$var tri1 1 P devclrn $end
$var tri1 1 Q devpor $end
$var tri1 1 R devoe $end
$var wire 1 S reset~input_o $end
$var wire 1 T discard_looknow~output_o $end
$var wire 1 U ctrl_block_out[0]~output_o $end
$var wire 1 V ctrl_block_out[1]~output_o $end
$var wire 1 W ctrl_block_out[2]~output_o $end
$var wire 1 X ctrl_block_out[3]~output_o $end
$var wire 1 Y ctrl_block_out[4]~output_o $end
$var wire 1 Z ctrl_block_out[5]~output_o $end
$var wire 1 [ ctrl_block_out[6]~output_o $end
$var wire 1 \ ctrl_block_out[7]~output_o $end
$var wire 1 ] ctrl_block_out[8]~output_o $end
$var wire 1 ^ ctrl_block_out[9]~output_o $end
$var wire 1 _ ctrl_block_out[10]~output_o $end
$var wire 1 ` ctrl_block_out[11]~output_o $end
$var wire 1 a ctrl_block_out[12]~output_o $end
$var wire 1 b ctrl_block_out[13]~output_o $end
$var wire 1 c ctrl_block_out[14]~output_o $end
$var wire 1 d ctrl_block_out[15]~output_o $end
$var wire 1 e ctrl_block_out[16]~output_o $end
$var wire 1 f ctrl_block_out[17]~output_o $end
$var wire 1 g ctrl_block_out[18]~output_o $end
$var wire 1 h ctrl_block_out[19]~output_o $end
$var wire 1 i ctrl_block_out[20]~output_o $end
$var wire 1 j ctrl_block_out[21]~output_o $end
$var wire 1 k ctrl_block_out[22]~output_o $end
$var wire 1 l ctrl_block_out[23]~output_o $end
$var wire 1 m discard_frame_out[0]~output_o $end
$var wire 1 n discard_frame_out[1]~output_o $end
$var wire 1 o discard_frame_out[2]~output_o $end
$var wire 1 p discard_frame_out[3]~output_o $end
$var wire 1 q discard_frame_out[4]~output_o $end
$var wire 1 r discard_frame_out[5]~output_o $end
$var wire 1 s discard_frame_out[6]~output_o $end
$var wire 1 t discard_frame_out[7]~output_o $end
$var wire 1 u discard_frame_out[8]~output_o $end
$var wire 1 v discard_frame_out[9]~output_o $end
$var wire 1 w discard_frame_out[10]~output_o $end
$var wire 1 x discard_frame_out[11]~output_o $end
$var wire 1 y xmit_looknow~output_o $end
$var wire 1 z clk~input_o $end
$var wire 1 { discard_enable~input_o $end
$var wire 1 | discard_looknow~reg0_q $end
$var wire 1 } frame_seq[0]~input_o $end
$var wire 1 ~ ctrl_block_out[0]~reg0_q $end
$var wire 1 !! frame_seq[1]~input_o $end
$var wire 1 "! ctrl_block_out[1]~reg0_q $end
$var wire 1 #! frame_seq[2]~input_o $end
$var wire 1 $! ctrl_block_out[2]~reg0_q $end
$var wire 1 %! frame_seq[3]~input_o $end
$var wire 1 &! ctrl_block_out[3]~reg0_q $end
$var wire 1 '! frame_seq[4]~input_o $end
$var wire 1 (! ctrl_block_out[4]~reg0_q $end
$var wire 1 )! frame_seq[5]~input_o $end
$var wire 1 *! ctrl_block_out[5]~reg0_q $end
$var wire 1 +! frame_seq[6]~input_o $end
$var wire 1 ,! ctrl_block_out[6]~reg0_q $end
$var wire 1 -! frame_seq[7]~input_o $end
$var wire 1 .! ctrl_block_out[7]~reg0_q $end
$var wire 1 /! frame_seq[8]~input_o $end
$var wire 1 0! ctrl_block_out[8]~reg0_q $end
$var wire 1 1! frame_seq[9]~input_o $end
$var wire 1 2! ctrl_block_out[9]~reg0_q $end
$var wire 1 3! frame_seq[10]~input_o $end
$var wire 1 4! ctrl_block_out[10]~reg0_q $end
$var wire 1 5! frame_seq[11]~input_o $end
$var wire 1 6! ctrl_block_out[11]~reg0_q $end
$var wire 1 7! frame_seq[12]~input_o $end
$var wire 1 8! ctrl_block_out[12]~reg0_q $end
$var wire 1 9! frame_seq[13]~input_o $end
$var wire 1 :! ctrl_block_out[13]~reg0_q $end
$var wire 1 ;! frame_seq[14]~input_o $end
$var wire 1 <! ctrl_block_out[14]~reg0_q $end
$var wire 1 =! frame_seq[15]~input_o $end
$var wire 1 >! ctrl_block_out[15]~reg0_q $end
$var wire 1 ?! frame_seq[16]~input_o $end
$var wire 1 @! ctrl_block_out[16]~reg0_q $end
$var wire 1 A! frame_seq[17]~input_o $end
$var wire 1 B! ctrl_block_out[17]~reg0_q $end
$var wire 1 C! frame_seq[18]~input_o $end
$var wire 1 D! ctrl_block_out[18]~reg0_q $end
$var wire 1 E! frame_seq[19]~input_o $end
$var wire 1 F! ctrl_block_out[19]~reg0_q $end
$var wire 1 G! frame_seq[20]~input_o $end
$var wire 1 H! ctrl_block_out[20]~reg0_q $end
$var wire 1 I! frame_seq[21]~input_o $end
$var wire 1 J! ctrl_block_out[21]~reg0_q $end
$var wire 1 K! frame_seq[22]~input_o $end
$var wire 1 L! ctrl_block_out[22]~reg0_q $end
$var wire 1 M! frame_seq[23]~input_o $end
$var wire 1 N! ctrl_block_out[23]~reg0_q $end
$var wire 1 O! discard_frame[0]~input_o $end
$var wire 1 P! discard_frame_out[0]~reg0_q $end
$var wire 1 Q! discard_frame[1]~input_o $end
$var wire 1 R! discard_frame_out[1]~reg0_q $end
$var wire 1 S! discard_frame[2]~input_o $end
$var wire 1 T! discard_frame_out[2]~reg0_q $end
$var wire 1 U! discard_frame[3]~input_o $end
$var wire 1 V! discard_frame_out[3]~reg0_q $end
$var wire 1 W! discard_frame[4]~input_o $end
$var wire 1 X! discard_frame_out[4]~reg0_q $end
$var wire 1 Y! discard_frame[5]~input_o $end
$var wire 1 Z! discard_frame_out[5]~reg0_q $end
$var wire 1 [! discard_frame[6]~input_o $end
$var wire 1 \! discard_frame_out[6]~reg0_q $end
$var wire 1 ]! discard_frame[7]~input_o $end
$var wire 1 ^! discard_frame_out[7]~reg0_q $end
$var wire 1 _! discard_frame[8]~input_o $end
$var wire 1 `! discard_frame_out[8]~reg0_q $end
$var wire 1 a! discard_frame[9]~input_o $end
$var wire 1 b! discard_frame_out[9]~reg0_q $end
$var wire 1 c! discard_frame[10]~input_o $end
$var wire 1 d! discard_frame_out[10]~reg0_q $end
$var wire 1 e! discard_frame[11]~input_o $end
$var wire 1 f! discard_frame_out[11]~reg0_q $end
$var wire 1 g! xmit_done~input_o $end
$var wire 1 h! xmit_looknow~reg0_q $end
$upscope $end
$upscope $end
$enddefinitions $end
#0
$dumpvars
0!
0"
b0 #
b0 $
0%
0&
0>
0=
0<
0;
0:
09
08
07
06
05
04
03
02
01
00
0/
0.
0-
0,
0+
0*
0)
0(
0'
0J
0I
0H
0G
0F
0E
0D
0C
0B
0A
0@
0?
0K
0L
0M
1N
xO
1P
1Q
1R
0S
0T
0U
0V
0W
0X
0Y
0Z
0[
0\
0]
0^
0_
0`
0a
0b
0c
0d
0e
0f
0g
0h
0i
0j
0k
0l
0m
0n
0o
0p
0q
0r
0s
0t
0u
0v
0w
0x
0y
0z
0{
0|
0}
0~
0!!
0"!
0#!
0$!
0%!
0&!
0'!
0(!
0)!
0*!
0+!
0,!
0-!
0.!
0/!
00!
01!
02!
03!
04!
05!
06!
07!
08!
09!
0:!
0;!
0<!
0=!
0>!
0?!
0@!
0A!
0B!
0C!
0D!
0E!
0F!
0G!
0H!
0I!
0J!
0K!
0L!
0M!
0N!
0O!
0P!
0Q!
0R!
0S!
0T!
0U!
0V!
0W!
0X!
0Y!
0Z!
0[!
0\!
0]!
0^!
0_!
0`!
0a!
0b!
0c!
0d!
0e!
0f!
0g!
0h!
$end
#10000
1"
1{
#20000
1&
1g!
#25000
1!
1z
1h!
1|
1T
1y
1L
1K
#30000
0"
0{
#50000
0!
1"
0z
1{
#60000
0&
0g!
#75000
1!
1z
0h!
0y
0L
#80000
0"
0{
#100000
0!
0z
#110000
b100000000000 #
b100010000000 #
b100010001000 #
b100010001001 #
1O!
1U!
1]!
1e!
#125000
1!
1z
1f!
1^!
1V!
1P!
0|
0T
1m
1p
1t
1x
1?
1C
1G
1J
0K
#130000
b10001001 #
b1001 #
b1 #
b0 #
0O!
0U!
0]!
0e!
#150000
0!
0z
#175000
1!
1z
0f!
0^!
0V!
0P!
0m
0p
0t
0x
0?
0C
0G
0J
#200000
0!
0z
#225000
1!
1z
#250000
0!
0z
#275000
1!
1z
#300000
0!
0z
#325000
1!
1z
#350000
0!
0z
#375000
1!
1z
#400000
0!
0z
#425000
1!
1z
#450000
0!
0z
#475000
1!
1z
#500000
0!
0z
#525000
1!
1z
#550000
0!
0z
#575000
1!
1z
#600000
0!
0z
#625000
1!
1z
#650000
0!
0z
#675000
1!
1z
#700000
0!
0z
#725000
1!
1z
#750000
0!
0z
#775000
1!
1z
#800000
0!
0z
#825000
1!
1z
#850000
0!
0z
#875000
1!
1z
#900000
0!
0z
#925000
1!
1z
#950000
0!
0z
#975000
1!
1z
